module rss-reader

go 1.20

require (
	github.com/go-chi/chi v1.5.4 // indirect
	github.com/go-chi/cors v1.2.1 // indirect
	github.com/google/uuid v1.3.0 // indirect
	github.com/joho/godotenv v1.5.1 // indirect
	github.com/lib/pq v1.10.9 // indirect
)
